[gd_scene load_steps=6 format=2]

[ext_resource path="res://local/player/weapons/Rocket_Launcher/Rocket.gd" type="Script" id=1]
[ext_resource path="res://assets/models/nature/Models/OBJ format/crop_turnip.obj" type="ArrayMesh" id=2]
[ext_resource path="res://scripted_assets/world/effects/fire.tscn" type="PackedScene" id=3]

[sub_resource type="SphereShape" id=1]
radius = 0.482229

[sub_resource type="SphereShape" id=3]

[node name="Rocket" type="RigidBody"]
gravity_scale = 0.0
contacts_reported = 1
contact_monitor = true
script = ExtResource( 1 )

[node name="CollisionShape" type="CollisionShape" parent="."]
transform = Transform( 0.5, 0, 0, 0, 0.5, 0, 0, 0, 0.5, 0, 0, 0 )
shape = SubResource( 1 )

[node name="mesh" type="MeshInstance" parent="CollisionShape"]
transform = Transform( -10, -1.50996e-06, -6.60024e-14, 0, -4.37114e-07, 10, -1.50996e-06, 10, 4.37114e-07, -2.11054e-07, 1.4176e-07, -3.24309 )
mesh = ExtResource( 2 )
material/0 = null
material/1 = null

[node name="Blast_Area" type="Area" parent="."]
transform = Transform( 10, 0, 0, 0, 10, 0, 0, 0, 10, 0, 0, 0 )
gravity_vec = Vector3( 0, 0, 0 )
gravity = 0.0

[node name="CollisionShape" type="CollisionShape" parent="Blast_Area"]
shape = SubResource( 3 )

[node name="Fire" parent="." instance=ExtResource( 3 )]

[connection signal="body_shape_entered" from="." to="." method="_on_Rocket_body_shape_entered"]
