[gd_scene load_steps=4 format=2]

[ext_resource path="res://local/player/weapons/Grenade_Launcher/Grenade_Launcher.gd" type="Script" id=1]
[ext_resource path="res://assets/models/pirates/Models/OBJ format/cannon.obj" type="ArrayMesh" id=2]

[sub_resource type="Animation" id=1]
resource_name = "Recoil"
tracks/0/type = "value"
tracks/0/path = NodePath("cannon:rotation_degrees")
tracks/0/interp = 1
tracks/0/loop_wrap = true
tracks/0/imported = false
tracks/0/enabled = true
tracks/0/keys = {
"times": PoolRealArray( 0.05, 0.5, 0.94 ),
"transitions": PoolRealArray( 1, 1, 1 ),
"update": 0,
"values": [ Vector3( 0, 0, 0 ), Vector3( 12.602, 0, 0 ), Vector3( 0, 0, 0 ) ]
}

[node name="Grenade_Launcher" type="Spatial"]
script = ExtResource( 1 )

[node name="FirePoint" type="Spatial" parent="."]
transform = Transform( 1, 0, 0, 0, 1, 0, 0, 0, 1, 0, 0.112513, -2.18846 )

[node name="AnimationPlayer" type="AnimationPlayer" parent="."]
playback_speed = 5.0
anims/Recoil = SubResource( 1 )

[node name="cannon" type="MeshInstance" parent="."]
transform = Transform( 0.25, 0, 0, 0, 0.2, 0, 0, 0, 0.4, 0, 0, 0 )
mesh = ExtResource( 2 )
material/0 = null
material/1 = null
material/2 = null
