[gd_scene load_steps=4 format=2]

[ext_resource path="res://local/player/weapons/Air_Gun/Air_Blast.gd" type="Script" id=1]

[sub_resource type="CylinderShape" id=1]

[sub_resource type="CylinderMesh" id=2]

[node name="Air_Blast" type="RigidBody"]
script = ExtResource( 1 )

[node name="Area" type="Area" parent="."]

[node name="CollisionShape" type="CollisionShape" parent="Area"]
transform = Transform( 2, 0, 0, 0, -1.62921e-07, -2, 0, 1, -3.25841e-07, 0, 0, 0 )
shape = SubResource( 1 )

[node name="CPUParticles" type="CPUParticles" parent="."]
transform = Transform( 1, 0, 0, 0, -8.14603e-08, -1, 0, 0.5, -1.62921e-07, 0, 0, 0 )
lifetime = 3.0
speed_scale = 5.0
explosiveness = 1.0
mesh = SubResource( 2 )
emission_shape = 1
emission_sphere_radius = 1.0
gravity = Vector3( 0, 0, 0 )

[connection signal="body_entered" from="Area" to="." method="_on_Area_body_entered"]
